spi/SPI_loopback_tb.vcd
$date
	Tue Feb  7 14:39:36 2023
$end
$version
	Icarus Verilog
$end
$timescale
	1ps
$end
$scope module SPI_Master_tb $end
$var wire 1 ! sclk $end
$var wire 1 " mosi $end
$var wire 1 # finish $end
$var wire 8 $ data_out [7:0] $end
$var wire 1 % cs_n $end
$var reg 1 & clk $end
$var reg 8 ' data_in [7:0] $end
$var reg 1 ( miso $end
$var reg 1 ) rst_n $end
$var reg 1 * start $end
$scope begin genblk2 $end
$upscope $end
$scope module u_spi_master $end
$var wire 1 & clk $end
$var wire 8 + data_in [7:0] $end
$var wire 1 ( miso $end
$var wire 1 ) rst_n $end
$var wire 1 , sclk_negedge $end
$var wire 1 - sclk_posedge $end
$var wire 1 * start $end
$var wire 1 . shift_en $end
$var wire 1 / sampl_en $end
$var wire 1 " mosi $end
$var reg 4 0 clk_cnt [3:0] $end
$var reg 1 1 clk_cnt_en $end
$var reg 1 % cs_n $end
$var reg 3 2 cstate [2:0] $end
$var reg 8 3 data_out [7:0] $end
$var reg 8 4 data_reg [7:0] $end
$var reg 1 # finish $end
$var reg 3 5 nstate [2:0] $end
$var reg 1 ! sclk $end
$var reg 1 6 sclk_a $end
$var reg 1 7 sclk_b $end
$var reg 4 8 shift_cnt [3:0] $end
$scope function log2 $end
$var integer 32 9 v [31:0] $end
$upscope $end
$scope begin genblk1 $end
$upscope $end
$scope begin genblk2 $end
$upscope $end
$upscope $end
$scope task data_in_generate $end
$upscope $end
$scope task debug_information $end
$upscope $end
$scope task start_change $end
$upscope $end
$upscope $end
$scope module SPI_loopback_tb $end
$var wire 1 : data_valid_pos $end
$var wire 1 ; finish_m $end
$var wire 1 < data_valid_s $end
$var wire 8 = data_s_out [7:0] $end
$var wire 8 > data_m_out [7:0] $end
$var reg 1 ? clk $end
$var reg 8 @ data_m_in [7:0] $end
$var reg 8 A data_s_in [7:0] $end
$var reg 1 B data_valid_1 $end
$var reg 1 C data_valid_2 $end
$var reg 1 D rst_n $end
$var reg 1 E start_m $end
$scope module u_SPI_loopback $end
$var wire 1 ? clk $end
$var wire 8 F data_m_in [7:0] $end
$var wire 8 G data_s_in [7:0] $end
$var wire 1 D rst_n $end
$var wire 1 E start_m $end
$var wire 1 H sclk $end
$var wire 1 I mosi $end
$var wire 1 J miso $end
$var wire 1 ; finish_m $end
$var wire 1 < data_valid_s $end
$var wire 8 K data_s_out [7:0] $end
$var wire 8 L data_m_out [7:0] $end
$var wire 1 M cs_n $end
$scope module u_SPI_Slave $end
$var wire 1 ? clk $end
$var wire 1 N cs_n_negedge $end
$var wire 8 O data_in [7:0] $end
$var wire 1 D rst_n $end
$var wire 1 P sclk_negedge $end
$var wire 1 Q sclk_posedge $end
$var wire 1 R shift_en $end
$var wire 1 H sclk $end
$var wire 1 S sampl_en $end
$var wire 1 I mosi $end
$var wire 1 J miso $end
$var wire 1 < data_valid $end
$var wire 1 M cs_n $end
$var reg 1 T cs_n_a $end
$var reg 1 U cs_n_b $end
$var reg 8 V data_out [7:0] $end
$var reg 8 W data_reg [7:0] $end
$var reg 4 X sampl_num [3:0] $end
$var reg 1 Y sclk_a $end
$var reg 1 Z sclk_b $end
$scope function log2 $end
$var integer 32 [ v [31:0] $end
$upscope $end
$scope begin genblk1 $end
$upscope $end
$scope begin genblk2 $end
$upscope $end
$upscope $end
$scope module u_spi_master $end
$var wire 1 ? clk $end
$var wire 8 \ data_in [7:0] $end
$var wire 1 J miso $end
$var wire 1 D rst_n $end
$var wire 1 ] sclk_negedge $end
$var wire 1 ^ sclk_posedge $end
$var wire 1 E start $end
$var wire 1 _ shift_en $end
$var wire 1 ` sampl_en $end
$var wire 1 I mosi $end
$var reg 4 a clk_cnt [3:0] $end
$var reg 1 b clk_cnt_en $end
$var reg 1 M cs_n $end
$var reg 3 c cstate [2:0] $end
$var reg 8 d data_out [7:0] $end
$var reg 8 e data_reg [7:0] $end
$var reg 1 ; finish $end
$var reg 3 f nstate [2:0] $end
$var reg 1 H sclk $end
$var reg 1 g sclk_a $end
$var reg 1 h sclk_b $end
$var reg 4 i shift_cnt [3:0] $end
$scope function log2 $end
$var integer 32 j v [31:0] $end
$upscope $end
$scope begin genblk1 $end
$upscope $end
$scope begin genblk2 $end
$upscope $end
$upscope $end
$upscope $end
$scope task data_m_in_generate $end
$upscope $end
$scope task data_s_in_generate $end
$upscope $end
$scope task start_change $end
$upscope $end
$upscope $end
$scope module SPI_Master_tb $end
$scope begin genblk2 $end
$upscope $end
$scope module u_spi_master $end
$scope function log2 $end
$upscope $end
$scope begin genblk1 $end
$upscope $end
$scope begin genblk2 $end
$upscope $end
$upscope $end
$scope task data_in_generate $end
$upscope $end
$scope task debug_information $end
$upscope $end
$scope task start_change $end
$upscope $end
$upscope $end
$scope module SPI_loopback_tb $end
$scope module u_SPI_loopback $end
$scope module u_SPI_Slave $end
$scope function log2 $end
$upscope $end
$scope begin genblk1 $end
$upscope $end
$scope begin genblk2 $end
$upscope $end
$upscope $end
$scope module u_spi_master $end
$scope function log2 $end
$upscope $end
$scope begin genblk1 $end
$upscope $end
$scope begin genblk2 $end
$upscope $end
$upscope $end
$upscope $end
$scope task data_m_in_generate $end
$upscope $end
$scope task data_s_in_generate $end
$upscope $end
$scope task start_change $end
$upscope $end
$upscope $end
$enddefinitions $end
#0
$dumpvars
bx j
b0 i
0h
0g
b0 f
b0 e
b0 d
b0 c
0b
b0 a
0`
0_
0^
0]
b0 \
bx [
0Z
0Y
b0 X
b0 W
b0 V
1U
1T
0S
0R
0Q
0P
b0 O
0N
1M
b0 L
b0 K
0J
0I
0H
b0 G
b0 F
0E
0D
xC
xB
b0 A
b0 @
1?
b0 >
b0 =
0<
0;
x:
bx 9
b0 8
17
16
b0 5
b0 4
b0 3
b0 2
01
b0 0
0/
0.
0-
0,
b0 +
0*
0)
0(
b0 '
1&
1%
b0 $
0#
0"
1!
$end
#10000
0?
0&
#20000
0:
0B
1?
1&
#22000
b10000001 A
b10000001 G
b10000001 O
b10100101 @
b10100101 F
b10100101 \
b10100101 '
b10100101 +
1D
1)
#30000
0?
0&
#40000
0C
1?
1&
#42000
b1 f
b1 5
1E
1*
#50000
0?
0&
#60000
1I
b10 f
1"
b10 5
0M
b10100101 e
1b
b1 c
0%
b10100101 4
11
b1 2
1?
1&
#62000
0E
0*
#70000
0?
0&
#80000
1N
b1 a
b10 c
0T
b1 0
b10 2
1?
1&
#90000
0?
0&
#100000
1J
0N
b10000001 W
0U
b10 a
b10 0
1?
1&
#110000
0?
0&
#120000
b11 a
b11 0
1?
1&
#130000
0?
0&
#140000
b100 a
b100 0
1?
1&
#150000
0?
0&
#160000
b101 a
b101 0
1?
1&
#170000
0?
0&
#180000
b110 a
b110 0
1?
1&
#190000
0?
0&
#200000
b111 a
b111 0
1?
1&
#210000
0?
0&
#220000
b1000 a
b1000 0
1?
1&
#230000
0?
0&
#240000
b1001 a
b1001 0
1?
1&
#250000
0?
0&
#260000
1H
b0 a
0!
b0 0
1?
1&
#270000
0?
0&
#280000
1/
1,
1`
1^
1S
1Q
b1 a
1g
1Y
b1 0
06
1?
1&
#290000
0?
0&
#300000
0S
0Q
0`
0^
0/
0,
b1 X
b1 =
b1 K
b1 V
1Z
b1 >
b1 L
b1 d
1h
b10 a
07
b10 0
1?
1&
#310000
0?
0&
#320000
b11 a
b11 0
1?
1&
#330000
0?
0&
#340000
b100 a
b100 0
1?
1&
#350000
0?
0&
#360000
b101 a
b101 0
1?
1&
#370000
0?
0&
#380000
b110 a
b110 0
1?
1&
#390000
0?
0&
#400000
b111 a
b111 0
1?
1&
#410000
0?
0&
#420000
b1000 a
b1000 0
1?
1&
#430000
0?
0&
#440000
b1001 a
b1001 0
1?
1&
#450000
0?
0&
#460000
1(
0H
b0 a
1!
b0 0
1?
1&
#470000
0?
0&
#480000
1_
1]
1R
1P
1.
1-
b1 a
0g
0Y
b1 0
16
1?
1&
#490000
0?
0&
#500000
0J
0.
0-
0R
0P
0I
0_
0]
0"
b10 W
0Z
b1001010 e
b1 i
0h
b10 a
b1001010 4
b1 8
17
b10 0
1?
1&
#510000
0?
0&
#520000
b11 a
b11 0
1?
1&
#530000
0?
0&
#540000
b100 a
b100 0
1?
1&
#550000
0?
0&
#560000
b101 a
b101 0
1?
1&
#570000
0?
0&
#580000
b110 a
b110 0
1?
1&
#590000
0?
0&
#600000
b111 a
b111 0
1?
1&
#610000
0?
0&
#620000
b1000 a
b1000 0
1?
1&
#630000
0?
0&
#640000
b1001 a
b1001 0
1?
1&
#650000
0?
0&
#660000
1H
b0 a
0!
b0 0
1?
1&
#670000
0?
0&
#680000
1/
1,
1`
1^
1S
1Q
b1 a
1g
1Y
b1 0
06
1?
1&
#690000
0?
0&
#700000
0S
0Q
0`
0^
0/
0,
b10 X
b10 =
b10 K
b10 V
1Z
b10 >
b10 L
b10 d
1h
b10 a
b1 $
b1 3
07
b10 0
1?
1&
#710000
0?
0&
#720000
b11 a
b11 0
1?
1&
#730000
0?
0&
#740000
b100 a
b100 0
1?
1&
#750000
0?
0&
#760000
b101 a
b101 0
1?
1&
#770000
0?
0&
#780000
b110 a
b110 0
1?
1&
#790000
0?
0&
#800000
b111 a
b111 0
1?
1&
#810000
0?
0&
#820000
b1000 a
b1000 0
1?
1&
#830000
0?
0&
#840000
b1001 a
b1001 0
1?
1&
#850000
0?
0&
#860000
0H
b0 a
1!
b0 0
1?
1&
#870000
0?
0&
#880000
1_
1]
1R
1P
1.
1-
b1 a
0g
0Y
b1 0
16
1?
1&
#890000
0?
0&
#900000
0.
0-
0R
0P
1I
0_
0]
1"
b100 W
0Z
b10010100 e
b10 i
0h
b10 a
b10010100 4
b10 8
17
b10 0
1?
1&
#910000
0?
0&
#920000
b11 a
b11 0
1?
1&
#930000
0?
0&
#940000
b100 a
b100 0
1?
1&
#950000
0?
0&
#960000
b101 a
b101 0
1?
1&
#970000
0?
0&
#980000
b110 a
b110 0
1?
1&
#990000
0?
0&
#1000000
b111 a
b111 0
1?
1&
#1010000
0?
0&
#1020000
b1000 a
b1000 0
1?
1&
#1030000
0?
0&
#1040000
b1001 a
b1001 0
1?
1&
#1050000
0?
0&
#1060000
1H
b0 a
0!
b0 0
1?
1&
#1070000
0?
0&
#1080000
1/
1,
1`
1^
1S
1Q
b1 a
1g
1Y
b1 0
06
1?
1&
#1090000
0?
0&
#1100000
0S
0Q
0`
0^
0/
0,
b11 X
b101 =
b101 K
b101 V
1Z
b100 >
b100 L
b100 d
1h
b10 a
b11 $
b11 3
07
b10 0
1?
1&
#1110000
0?
0&
#1120000
b11 a
b11 0
1?
1&
#1130000
0?
0&
#1140000
b100 a
b100 0
1?
1&
#1150000
0?
0&
#1160000
b101 a
b101 0
1?
1&
#1170000
0?
0&
#1180000
b110 a
b110 0
1?
1&
#1190000
0?
0&
#1200000
b111 a
b111 0
1?
1&
#1210000
0?
0&
#1220000
b1000 a
b1000 0
1?
1&
#1230000
0?
0&
#1240000
b1001 a
b1001 0
1?
1&
#1250000
0?
0&
#1260000
0H
b0 a
1!
b0 0
1?
1&
#1270000
0?
0&
#1280000
1_
1]
1R
1P
1.
1-
b1 a
0g
0Y
b1 0
16
1?
1&
#1290000
0?
0&
#1300000
0.
0-
0R
0P
0I
0_
0]
0"
b1000 W
0Z
b101000 e
b11 i
0h
b10 a
b101000 4
b11 8
17
b10 0
1?
1&
#1310000
0?
0&
#1320000
b11 a
b11 0
1?
1&
#1330000
0?
0&
#1340000
b100 a
b100 0
1?
1&
#1350000
0?
0&
#1360000
b101 a
b101 0
1?
1&
#1370000
0?
0&
#1380000
b110 a
b110 0
1?
1&
#1390000
0?
0&
#1400000
b111 a
b111 0
1?
1&
#1410000
0?
0&
#1420000
b1000 a
b1000 0
1?
1&
#1430000
0?
0&
#1440000
b1001 a
b1001 0
1?
1&
#1450000
0?
0&
#1460000
1H
b0 a
0!
b0 0
1?
1&
#1470000
0?
0&
#1480000
1/
1,
1`
1^
1S
1Q
b1 a
1g
1Y
b1 0
06
1?
1&
#1490000
0?
0&
#1500000
0S
0Q
0`
0^
0/
0,
b100 X
b1010 =
b1010 K
b1010 V
1Z
b1000 >
b1000 L
b1000 d
1h
b10 a
b111 $
b111 3
07
b10 0
1?
1&
#1510000
0?
0&
#1520000
b11 a
b11 0
1?
1&
#1530000
0?
0&
#1540000
b100 a
b100 0
1?
1&
#1550000
0?
0&
#1560000
b101 a
b101 0
1?
1&
#1570000
0?
0&
#1580000
b110 a
b110 0
1?
1&
#1590000
0?
0&
#1600000
b111 a
b111 0
1?
1&
#1610000
0?
0&
#1620000
b1000 a
b1000 0
1?
1&
#1630000
0?
0&
#1640000
b1001 a
b1001 0
1?
1&
#1650000
0?
0&
#1660000
0H
b0 a
1!
b0 0
1?
1&
#1670000
0?
0&
#1680000
1_
1]
1R
1P
1.
1-
b1 a
0g
0Y
b1 0
16
1?
1&
#1690000
0?
0&
#1700000
0.
0-
0R
0P
0_
0]
b10000 W
0Z
b1010000 e
b100 i
0h
b10 a
b1010000 4
b100 8
17
b10 0
1?
1&
#1710000
0?
0&
#1720000
b11 a
b11 0
1?
1&
#1730000
0?
0&
#1740000
b100 a
b100 0
1?
1&
#1750000
0?
0&
#1760000
b101 a
b101 0
1?
1&
#1770000
0?
0&
#1780000
b110 a
b110 0
1?
1&
#1790000
0?
0&
#1800000
b111 a
b111 0
1?
1&
#1810000
0?
0&
#1820000
b1000 a
b1000 0
1?
1&
#1830000
0?
0&
#1840000
b1001 a
b1001 0
1?
1&
#1850000
0?
0&
#1860000
1H
b0 a
0!
b0 0
1?
1&
#1870000
0?
0&
#1880000
1/
1,
1`
1^
1S
1Q
b1 a
1g
1Y
b1 0
06
1?
1&
#1890000
0?
0&
#1900000
0S
0Q
0`
0^
0/
0,
b101 X
b10100 =
b10100 K
b10100 V
1Z
b10000 >
b10000 L
b10000 d
1h
b10 a
b1111 $
b1111 3
07
b10 0
1?
1&
#1910000
0?
0&
#1920000
b11 a
b11 0
1?
1&
#1930000
0?
0&
#1940000
b100 a
b100 0
1?
1&
#1950000
0?
0&
#1960000
b101 a
b101 0
1?
1&
#1970000
0?
0&
#1980000
b110 a
b110 0
1?
1&
#1990000
0?
0&
#2000000
b111 a
b111 0
1?
1&
#2010000
0?
0&
#2020000
b1000 a
b1000 0
1?
1&
#2030000
0?
0&
#2040000
b1001 a
b1001 0
1?
1&
#2050000
0?
0&
#2060000
0H
b0 a
1!
b0 0
1?
1&
#2070000
0?
0&
#2080000
1_
1]
1R
1P
1.
1-
b1 a
0g
0Y
b1 0
16
1?
1&
#2090000
0?
0&
#2100000
0.
0-
0R
0P
1I
0_
0]
1"
b100000 W
0Z
b10100000 e
b101 i
0h
b10 a
b10100000 4
b101 8
17
b10 0
1?
1&
#2110000
0?
0&
#2120000
b11 a
b11 0
1?
1&
#2130000
0?
0&
#2140000
b100 a
b100 0
1?
1&
#2150000
0?
0&
#2160000
b101 a
b101 0
1?
1&
#2170000
0?
0&
#2180000
b110 a
b110 0
1?
1&
#2190000
0?
0&
#2200000
b111 a
b111 0
1?
1&
#2210000
0?
0&
#2220000
b1000 a
b1000 0
1?
1&
#2230000
0?
0&
#2240000
b1001 a
b1001 0
1?
1&
#2250000
0?
0&
#2260000
1H
b0 a
0!
b0 0
1?
1&
#2270000
0?
0&
#2280000
1/
1,
1`
1^
1S
1Q
b1 a
1g
1Y
b1 0
06
1?
1&
#2290000
0?
0&
#2300000
0S
0Q
0`
0^
0/
0,
b110 X
b101001 =
b101001 K
b101001 V
1Z
b100000 >
b100000 L
b100000 d
1h
b10 a
b11111 $
b11111 3
07
b10 0
1?
1&
#2310000
0?
0&
#2320000
b11 a
b11 0
1?
1&
#2330000
0?
0&
#2340000
b100 a
b100 0
1?
1&
#2350000
0?
0&
#2360000
b101 a
b101 0
1?
1&
#2370000
0?
0&
#2380000
b110 a
b110 0
1?
1&
#2390000
0?
0&
#2400000
b111 a
b111 0
1?
1&
#2410000
0?
0&
#2420000
b1000 a
b1000 0
1?
1&
#2430000
0?
0&
#2440000
b1001 a
b1001 0
1?
1&
#2450000
0?
0&
#2460000
0(
0H
b0 a
1!
b0 0
1?
1&
#2470000
0?
0&
#2480000
1_
1]
1R
1P
1.
1-
b1 a
0g
0Y
b1 0
16
1?
1&
#2490000
0?
0&
#2500000
0.
0-
0R
0P
0I
0_
0]
0"
b1000000 W
0Z
b1000000 e
b110 i
0h
b10 a
b1000000 4
b110 8
17
b10 0
1?
1&
#2510000
0?
0&
#2520000
b11 a
b11 0
1?
1&
#2530000
0?
0&
#2540000
b100 a
b100 0
1?
1&
#2550000
0?
0&
#2560000
b101 a
b101 0
1?
1&
#2570000
0?
0&
#2580000
b110 a
b110 0
1?
1&
#2590000
0?
0&
#2600000
b111 a
b111 0
1?
1&
#2610000
0?
0&
#2620000
b1000 a
b1000 0
1?
1&
#2630000
0?
0&
#2640000
b1001 a
b1001 0
1?
1&
#2650000
0?
0&
#2660000
1H
b0 a
0!
b0 0
1?
1&
#2670000
0?
0&
#2680000
1/
1,
1`
1^
1S
1Q
b1 a
1g
1Y
b1 0
06
1?
1&
#2690000
0?
0&
#2700000
0S
0Q
0`
0^
0/
0,
b111 X
b1010010 =
b1010010 K
b1010010 V
1Z
b1000000 >
b1000000 L
b1000000 d
1h
b10 a
b111110 $
b111110 3
07
b10 0
1?
1&
#2710000
0?
0&
#2720000
b11 a
b11 0
1?
1&
#2730000
0?
0&
#2740000
b100 a
b100 0
1?
1&
#2750000
0?
0&
#2760000
b101 a
b101 0
1?
1&
#2770000
0?
0&
#2780000
b110 a
b110 0
1?
1&
#2790000
0?
0&
#2800000
b111 a
b111 0
1?
1&
#2810000
0?
0&
#2820000
b1000 a
b1000 0
1?
1&
#2830000
0?
0&
#2840000
b1001 a
b1001 0
1?
1&
#2850000
0?
0&
#2860000
1(
0H
b0 a
1!
b0 0
1?
1&
#2870000
0?
0&
#2880000
1_
1]
1R
1P
1.
1-
b1 a
0g
0Y
b1 0
16
1?
1&
#2890000
0?
0&
#2900000
1J
0.
0-
0R
0P
1I
0_
0]
1"
b10000000 W
0Z
b10000000 e
b111 i
0h
b10 a
b10000000 4
b111 8
17
b10 0
1?
1&
#2910000
0?
0&
#2920000
b11 a
b11 0
1?
1&
#2930000
0?
0&
#2940000
b100 a
b100 0
1?
1&
#2950000
0?
0&
#2960000
b101 a
b101 0
1?
1&
#2970000
0?
0&
#2980000
b110 a
b110 0
1?
1&
#2990000
0?
0&
#3000000
b111 a
b111 0
1?
1&
#3010000
0?
0&
#3020000
b1000 a
b1000 0
1?
1&
#3030000
0?
0&
#3040000
b1001 a
b1001 0
1?
1&
#3050000
0?
0&
#3060000
1H
b0 a
0!
b0 0
1?
1&
#3070000
0?
0&
#3080000
1/
1,
1`
1^
1S
1Q
b1 a
1g
1Y
b1 0
06
1?
1&
#3090000
0?
0&
#3100000
0S
0Q
0`
0^
0/
0,
1<
b1000 X
b10100101 =
b10100101 K
b10100101 V
1Z
b10000001 >
b10000001 L
b10000001 d
1h
b10 a
b1111101 $
b1111101 3
07
b10 0
1?
1&
#3110000
0?
0&
#3120000
1:
b11 a
1B
b11 0
1?
1&
#3130000
0?
0&
#3140000
0:
1C
b100 a
b100 0
1?
1&
#3150000
0?
0&
#3160000
b101 a
b101 0
1?
1&
#3170000
0?
0&
#3180000
b110 a
b110 0
1?
1&
#3190000
0?
0&
#3200000
b111 a
b111 0
1?
1&
#3210000
0?
0&
#3220000
b1000 a
b1000 0
1?
1&
#3230000
0?
0&
#3240000
b1001 a
b1001 0
1?
1&
#3250000
0?
0&
#3260000
0H
b0 a
1!
b0 0
1?
1&
#3270000
0?
0&
#3280000
1_
1]
1R
1P
1.
1-
b1 a
0g
0Y
b1 0
16
1?
1&
#3290000
0?
0&
#3300000
0J
0.
0-
0R
0P
0I
b100 f
0_
0]
0"
b100 5
b0 W
0Z
b0 e
b1000 i
0h
b10 a
b0 4
b1000 8
17
b10 0
1?
1&
#3310000
0?
0&
#3320000
b10011010 @
b10011010 F
b10011010 \
b1110110 A
b1110110 G
b1110110 O
b10011010 '
b10011010 +
b0 f
b0 5
b11 a
b100 c
1;
1M
0b
b11 0
b100 2
1#
1%
01
1?
1&
#3330000
0?
0&
#3340000
0<
b0 X
1T
0;
b0 i
b0 c
b0 a
0#
b0 8
b0 2
b0 0
1?
1&
#3350000
0?
0&
#3360000
1I
1"
b1 c
0M
b10011010 e
1b
1U
0B
b1 2
0%
b10011010 4
11
b10 f
b10 5
1?
1&
1E
1*
#3370000
0?
0&
#3380000
1N
0C
0T
b10 c
b1 a
b10 2
b1 0
1?
1&
0E
0*
#3390000
0?
0&
#3400000
0N
b10 a
0U
b1110110 W
b10 0
1?
1&
#3410000
0?
0&
#3420000
b11 a
b11 0
1?
1&
#3430000
0?
0&
#3440000
b100 a
b100 0
1?
1&
#3450000
0?
0&
#3460000
b101 a
b101 0
1?
1&
#3470000
0?
0&
#3480000
b110 a
b110 0
1?
1&
#3490000
0?
0&
#3500000
b111 a
b111 0
1?
1&
#3510000
0?
0&
#3520000
b1000 a
b1000 0
1?
1&
#3530000
0?
0&
#3540000
b1001 a
b1001 0
1?
1&
#3550000
0?
0&
#3560000
b0 a
1H
b0 0
0!
1?
1&
#3570000
0?
0&
#3580000
1/
1,
1S
1Q
1`
1^
1Y
1g
b1 a
06
b1 0
1?
1&
#3590000
0?
0&
#3600000
0`
0^
0S
0Q
0/
0,
b10 a
1h
b10 >
b10 L
b10 d
1Z
b1001011 =
b1001011 K
b1001011 V
b1 X
b10 0
07
b11111011 $
b11111011 3
1?
1&
#3610000
0?
0&
#3620000
b11 a
b11 0
1?
1&
#3630000
0?
0&
#3640000
b100 a
b100 0
1?
1&
#3650000
0?
0&
#3660000
b101 a
b101 0
1?
1&
#3670000
0?
0&
#3680000
b110 a
b110 0
1?
1&
#3690000
0?
0&
#3700000
b111 a
b111 0
1?
1&
#3710000
0?
0&
#3720000
b1000 a
b1000 0
1?
1&
#3730000
0?
0&
#3740000
b1001 a
b1001 0
1?
1&
#3750000
0?
0&
#3760000
b0 a
0H
b0 0
1!
1?
1&
#3770000
0?
0&
#3780000
1R
1P
1_
1]
1.
1-
0Y
0g
b1 a
16
b1 0
1?
1&
#3790000
0?
0&
#3800000
1J
0.
0-
0_
0]
0I
0R
0P
0"
b10 a
0h
b110100 e
b1 i
0Z
b11101100 W
b10 0
17
b110100 4
b1 8
1?
1&
#3810000
0?
0&
#3820000
b11 a
b11 0
1?
1&
#3830000
0?
0&
#3840000
b100 a
b100 0
1?
1&
#3850000
0?
0&
#3860000
b101 a
b101 0
1?
1&
#3870000
0?
0&
#3880000
b110 a
b110 0
1?
1&
#3890000
0?
0&
#3900000
b111 a
b111 0
1?
1&
#3910000
0?
0&
#3920000
b1000 a
b1000 0
1?
1&
#3930000
0?
0&
#3940000
b1001 a
b1001 0
1?
1&
#3950000
0?
0&
#3960000
b0 a
1H
b0 0
0!
1?
1&
#3970000
0?
0&
#3980000
1/
1,
1S
1Q
1`
1^
1Y
1g
b1 a
06
b1 0
1?
1&
#3990000
0?
0&
#4000000
0`
0^
0S
0Q
0/
0,
b10 a
1h
b101 >
b101 L
b101 d
1Z
b10010110 =
b10010110 K
b10010110 V
b10 X
b10 0
07
b11110111 $
b11110111 3
1?
1&
#4010000
0?
0&
#4020000
b11 a
b11 0
1?
1&
#4030000
0?
0&
#4040000
b100 a
b100 0
1?
1&
#4050000
0?
0&
#4060000
b101 a
b101 0
1?
1&
#4070000
0?
0&
#4080000
b110 a
b110 0
1?
1&
#4090000
0?
0&
#4100000
b111 a
b111 0
1?
1&
#4110000
0?
0&
#4120000
b1000 a
b1000 0
1?
1&
#4130000
0?
0&
#4140000
b1001 a
b1001 0
1?
1&
#4150000
0?
0&
#4160000
b0 a
0H
b0 0
1!
1?
1&
#4170000
0?
0&
#4180000
1R
1P
1_
1]
1.
1-
0Y
0g
b1 a
16
b1 0
1?
1&
#4190000
0?
0&
#4200000
0.
0-
0_
0]
0R
0P
b10 a
0h
b1101000 e
b10 i
0Z
b11011000 W
b10 0
17
b1101000 4
b10 8
1?
1&
#4210000
0?
0&
#4220000
b11 a
b11 0
1?
1&
#4230000
0?
0&
#4240000
b100 a
b100 0
1?
1&
#4250000
0?
0&
#4260000
b101 a
b101 0
1?
1&
#4270000
0?
0&
#4280000
b110 a
b110 0
1?
1&
#4290000
0?
0&
#4300000
b111 a
b111 0
1?
1&
#4310000
0?
0&
#4320000
b1000 a
b1000 0
1?
1&
#4330000
0?
0&
#4340000
b1001 a
b1001 0
1?
1&
#4350000
0?
0&
#4360000
b0 a
1H
b0 0
0!
1?
1&
#4370000
0?
0&
#4380000
1/
1,
1S
1Q
1`
1^
1Y
1g
b1 a
06
b1 0
1?
1&
#4390000
0?
0&
#4400000
0`
0^
0S
0Q
0/
0,
b10 a
1h
b1011 >
b1011 L
b1011 d
1Z
b101100 =
b101100 K
b101100 V
b11 X
b10 0
07
b11101111 $
b11101111 3
1?
1&
#4410000
0?
0&
#4420000
b11 a
b11 0
1?
1&
#4430000
0?
0&
#4440000
b100 a
b100 0
1?
1&
#4450000
0?
0&
#4460000
b101 a
b101 0
1?
1&
#4470000
0?
0&
#4480000
b110 a
b110 0
1?
1&
#4490000
0?
0&
#4500000
b111 a
b111 0
1?
1&
#4510000
0?
0&
#4520000
b1000 a
b1000 0
1?
1&
#4530000
0?
0&
#4540000
b1001 a
b1001 0
1?
1&
#4550000
0?
0&
#4560000
0(
b0 a
0H
b0 0
1!
1?
1&
#4570000
0?
0&
#4580000
1R
1P
1_
1]
1.
1-
0Y
0g
b1 a
16
b1 0
1?
1&
#4590000
0?
0&
#4600000
0.
0-
0_
0]
1I
0R
0P
1"
b10 a
0h
b11010000 e
b11 i
0Z
b10110000 W
b10 0
17
b11010000 4
b11 8
1?
1&
#4610000
0?
0&
#4620000
b11 a
b11 0
1?
1&
#4630000
0?
0&
#4640000
b100 a
b100 0
1?
1&
#4650000
0?
0&
#4660000
b101 a
b101 0
1?
1&
#4670000
0?
0&
#4680000
b110 a
b110 0
1?
1&
#4690000
0?
0&
#4700000
b111 a
b111 0
1?
1&
#4710000
0?
0&
#4720000
b1000 a
b1000 0
1?
1&
#4730000
0?
0&
#4740000
b1001 a
b1001 0
1?
1&
#4750000
0?
0&
#4760000
b0 a
1H
b0 0
0!
1?
1&
#4770000
0?
0&
#4780000
1/
1,
1S
1Q
1`
1^
1Y
1g
b1 a
06
b1 0
1?
1&
#4790000
0?
0&
#4800000
0`
0^
0S
0Q
0/
0,
b10 a
1h
b10111 >
b10111 L
b10111 d
1Z
b1011001 =
b1011001 K
b1011001 V
b100 X
b10 0
07
b11011110 $
b11011110 3
1?
1&
#4810000
0?
0&
#4820000
b11 a
b11 0
1?
1&
#4830000
0?
0&
#4840000
b100 a
b100 0
1?
1&
#4850000
0?
0&
#4860000
b101 a
b101 0
1?
1&
#4870000
0?
0&
#4880000
b110 a
b110 0
1?
1&
#4890000
0?
0&
#4900000
b111 a
b111 0
1?
1&
#4910000
0?
0&
#4920000
b1000 a
b1000 0
1?
1&
#4930000
0?
0&
#4940000
b1001 a
b1001 0
1?
1&
#4950000
0?
0&
#4960000
1(
b0 a
0H
b0 0
1!
1?
1&
#4970000
0?
0&
#4980000
1R
1P
1_
1]
1.
1-
0Y
0g
b1 a
16
b1 0
1?
1&
#4990000
0?
0&
#5000000
0J
0.
0-
0_
0]
0R
0P
b10 a
0h
b10100000 e
b100 i
0Z
b1100000 W
b10 0
17
b10100000 4
b100 8
1?
1&
#5010000
0?
0&
#5020000
b11 a
b11 0
1?
1&
#5030000
0?
0&
#5040000
b100 a
b100 0
1?
1&
#5050000
0?
0&
#5060000
b101 a
b101 0
1?
1&
#5070000
0?
0&
#5080000
b110 a
b110 0
1?
1&
#5090000
0?
0&
#5100000
b111 a
b111 0
1?
1&
#5110000
0?
0&
#5120000
b1000 a
b1000 0
1?
1&
#5130000
0?
0&
#5140000
b1001 a
b1001 0
1?
1&
#5150000
0?
0&
#5160000
b0 a
1H
b0 0
0!
1?
1&
#5170000
0?
0&
#5180000
1/
1,
1S
1Q
1`
1^
1Y
1g
b1 a
06
b1 0
1?
1&
#5190000
0?
0&
#5200000
0`
0^
0S
0Q
0/
0,
b10 a
1h
b101110 >
b101110 L
b101110 d
1Z
b10110011 =
b10110011 K
b10110011 V
b101 X
b10 0
07
b10111101 $
b10111101 3
1?
1&
#5210000
0?
0&
#5220000
b11 a
b11 0
1?
1&
#5230000
0?
0&
#5240000
b100 a
b100 0
1?
1&
#5250000
0?
0&
#5260000
b101 a
b101 0
1?
1&
#5270000
0?
0&
#5280000
b110 a
b110 0
1?
1&
#5290000
0?
0&
#5300000
b111 a
b111 0
1?
1&
#5310000
0?
0&
#5320000
b1000 a
b1000 0
1?
1&
#5330000
0?
0&
#5340000
b1001 a
b1001 0
1?
1&
#5350000
0?
0&
#5360000
0(
b0 a
0H
b0 0
1!
1?
1&
#5370000
0?
0&
#5380000
1R
1P
1_
1]
1.
1-
0Y
0g
b1 a
16
b1 0
1?
1&
#5390000
0?
0&
#5400000
1J
0.
0-
0_
0]
0I
0R
0P
0"
b10 a
0h
b1000000 e
b101 i
0Z
b11000000 W
b10 0
17
b1000000 4
b101 8
1?
1&
#5410000
0?
0&
#5420000
b11 a
b11 0
1?
1&
#5430000
0?
0&
#5440000
b100 a
b100 0
1?
1&
#5450000
0?
0&
#5460000
b101 a
b101 0
1?
1&
#5470000
0?
0&
#5480000
b110 a
b110 0
1?
1&
#5490000
0?
0&
#5500000
b111 a
b111 0
1?
1&
#5510000
0?
0&
#5520000
b1000 a
b1000 0
1?
1&
#5530000
0?
0&
